\BOOKMARK [0][-]{chapter.1}{Introduction}{}
\BOOKMARK [0][-]{chapter.2}{A 3D API for Verbalization}{}
\BOOKMARK [1][-]{section.2.1}{Principles for the API}{chapter.2}
\BOOKMARK [1][-]{section.2.2}{AST Generation}{chapter.2}
\BOOKMARK [2][-]{subsection.2.2.1}{Assumptions}{section.2.2}
\BOOKMARK [2][-]{subsection.2.2.2}{Mechanism}{section.2.2}
\BOOKMARK [2][-]{subsection.2.2.3}{Examples}{section.2.2}
\BOOKMARK [1][-]{section.2.3}{Java API}{chapter.2}
\BOOKMARK [2][-]{subsection.2.3.1}{Domain Fragments}{section.2.3}
\BOOKMARK [2][-]{subsection.2.3.2}{Task Context}{section.2.3}
\BOOKMARK [2][-]{subsection.2.3.3}{Task}{section.2.3}
\BOOKMARK [1][-]{section.2.4}{Next Steps}{chapter.2}
\BOOKMARK [0][-]{chapter.3}{A Pluggable API for Processing Lexical Resources}{}
\BOOKMARK [0][-]{chapter.4}{An API for Lexical Services}{}
\BOOKMARK [1][-]{section.4.1}{NLP Resources}{chapter.4}
\BOOKMARK [2][-]{subsection.4.1.1}{Conjugator}{section.4.1}
\BOOKMARK [2][-]{subsection.4.1.2}{Lemmatizer}{section.4.1}
\BOOKMARK [2][-]{subsection.4.1.3}{Parser}{section.4.1}
\BOOKMARK [2][-]{subsection.4.1.4}{POSTagger}{section.4.1}
\BOOKMARK [2][-]{subsection.4.1.5}{SentenceSplitter}{section.4.1}
\BOOKMARK [2][-]{subsection.4.1.6}{Tokenizer}{section.4.1}
\BOOKMARK [1][-]{section.4.2}{Terminology Resources}{chapter.4}
\BOOKMARK [1][-]{section.4.3}{Multilingual Resources}{chapter.4}
\BOOKMARK [2][-]{subsection.4.3.1}{LanguageDetection}{section.4.3}
